{
  "type": "File",
  "start": 0,
  "end": 363,
  "loc": {
    "start": {
      "line": 1,
      "column": 0
    },
    "end": {
      "line": 10,
      "column": 0
    }
  },
  "program": {
    "type": "Program",
    "start": 0,
    "end": 363,
    "loc": {
      "start": {
        "line": 1,
        "column": 0
      },
      "end": {
        "line": 10,
        "column": 0
      }
    },
    "sourceType": "module",
    "body": [
      {
        "type": "ExpressionStatement",
        "start": 0,
        "end": 362,
        "loc": {
          "start": {
            "line": 1,
            "column": 0
          },
          "end": {
            "line": 9,
            "column": 1
          }
        },
        "expression": {
          "type": "AssignmentExpression",
          "start": 0,
          "end": 362,
          "loc": {
            "start": {
              "line": 1,
              "column": 0
            },
            "end": {
              "line": 9,
              "column": 1
            }
          },
          "operator": "=",
          "left": {
            "type": "MemberExpression",
            "start": 0,
            "end": 14,
            "loc": {
              "start": {
                "line": 1,
                "column": 0
              },
              "end": {
                "line": 1,
                "column": 14
              }
            },
            "object": {
              "type": "Identifier",
              "start": 0,
              "end": 6,
              "loc": {
                "start": {
                  "line": 1,
                  "column": 0
                },
                "end": {
                  "line": 1,
                  "column": 6
                },
                "identifierName": "module"
              },
              "name": "module"
            },
            "property": {
              "type": "Identifier",
              "start": 7,
              "end": 14,
              "loc": {
                "start": {
                  "line": 1,
                  "column": 7
                },
                "end": {
                  "line": 1,
                  "column": 14
                },
                "identifierName": "exports"
              },
              "name": "exports"
            },
            "computed": false
          },
          "right": {
            "type": "ObjectExpression",
            "start": 17,
            "end": 362,
            "loc": {
              "start": {
                "line": 1,
                "column": 17
              },
              "end": {
                "line": 9,
                "column": 1
              }
            },
            "properties": [
              {
                "type": "ObjectProperty",
                "start": 23,
                "end": 66,
                "loc": {
                  "start": {
                    "line": 2,
                    "column": 4
                  },
                  "end": {
                    "line": 2,
                    "column": 47
                  }
                },
                "method": false,
                "shorthand": false,
                "computed": false,
                "key": {
                  "type": "Identifier",
                  "start": 23,
                  "end": 33,
                  "loc": {
                    "start": {
                      "line": 2,
                      "column": 4
                    },
                    "end": {
                      "line": 2,
                      "column": 14
                    },
                    "identifierName": "PrivateKey"
                  },
                  "name": "PrivateKey"
                },
                "value": {
                  "type": "CallExpression",
                  "start": 35,
                  "end": 66,
                  "loc": {
                    "start": {
                      "line": 2,
                      "column": 16
                    },
                    "end": {
                      "line": 2,
                      "column": 47
                    }
                  },
                  "callee": {
                    "type": "Identifier",
                    "start": 35,
                    "end": 42,
                    "loc": {
                      "start": {
                        "line": 2,
                        "column": 16
                      },
                      "end": {
                        "line": 2,
                        "column": 23
                      },
                      "identifierName": "require"
                    },
                    "name": "require"
                  },
                  "arguments": [
                    {
                      "type": "StringLiteral",
                      "start": 43,
                      "end": 65,
                      "loc": {
                        "start": {
                          "line": 2,
                          "column": 24
                        },
                        "end": {
                          "line": 2,
                          "column": 46
                        }
                      },
                      "extra": {
                        "rawValue": "./ecc/src/PrivateKey",
                        "raw": "\"./ecc/src/PrivateKey\""
                      },
                      "value": "./ecc/src/PrivateKey"
                    }
                  ]
                }
              },
              {
                "type": "ObjectProperty",
                "start": 72,
                "end": 113,
                "loc": {
                  "start": {
                    "line": 3,
                    "column": 4
                  },
                  "end": {
                    "line": 3,
                    "column": 45
                  }
                },
                "method": false,
                "shorthand": false,
                "computed": false,
                "key": {
                  "type": "Identifier",
                  "start": 72,
                  "end": 81,
                  "loc": {
                    "start": {
                      "line": 3,
                      "column": 4
                    },
                    "end": {
                      "line": 3,
                      "column": 13
                    },
                    "identifierName": "PublicKey"
                  },
                  "name": "PublicKey"
                },
                "value": {
                  "type": "CallExpression",
                  "start": 83,
                  "end": 113,
                  "loc": {
                    "start": {
                      "line": 3,
                      "column": 15
                    },
                    "end": {
                      "line": 3,
                      "column": 45
                    }
                  },
                  "callee": {
                    "type": "Identifier",
                    "start": 83,
                    "end": 90,
                    "loc": {
                      "start": {
                        "line": 3,
                        "column": 15
                      },
                      "end": {
                        "line": 3,
                        "column": 22
                      },
                      "identifierName": "require"
                    },
                    "name": "require"
                  },
                  "arguments": [
                    {
                      "type": "StringLiteral",
                      "start": 91,
                      "end": 112,
                      "loc": {
                        "start": {
                          "line": 3,
                          "column": 23
                        },
                        "end": {
                          "line": 3,
                          "column": 44
                        }
                      },
                      "extra": {
                        "rawValue": "./ecc/src/PublicKey",
                        "raw": "\"./ecc/src/PublicKey\""
                      },
                      "value": "./ecc/src/PublicKey"
                    }
                  ]
                }
              },
              {
                "type": "ObjectProperty",
                "start": 119,
                "end": 160,
                "loc": {
                  "start": {
                    "line": 4,
                    "column": 4
                  },
                  "end": {
                    "line": 4,
                    "column": 45
                  }
                },
                "method": false,
                "shorthand": false,
                "computed": false,
                "key": {
                  "type": "Identifier",
                  "start": 119,
                  "end": 128,
                  "loc": {
                    "start": {
                      "line": 4,
                      "column": 4
                    },
                    "end": {
                      "line": 4,
                      "column": 13
                    },
                    "identifierName": "Signature"
                  },
                  "name": "Signature"
                },
                "value": {
                  "type": "CallExpression",
                  "start": 130,
                  "end": 160,
                  "loc": {
                    "start": {
                      "line": 4,
                      "column": 15
                    },
                    "end": {
                      "line": 4,
                      "column": 45
                    }
                  },
                  "callee": {
                    "type": "Identifier",
                    "start": 130,
                    "end": 137,
                    "loc": {
                      "start": {
                        "line": 4,
                        "column": 15
                      },
                      "end": {
                        "line": 4,
                        "column": 22
                      },
                      "identifierName": "require"
                    },
                    "name": "require"
                  },
                  "arguments": [
                    {
                      "type": "StringLiteral",
                      "start": 138,
                      "end": 159,
                      "loc": {
                        "start": {
                          "line": 4,
                          "column": 23
                        },
                        "end": {
                          "line": 4,
                          "column": 44
                        }
                      },
                      "extra": {
                        "rawValue": "./ecc/src/signature",
                        "raw": "\"./ecc/src/signature\""
                      },
                      "value": "./ecc/src/signature"
                    }
                  ]
                }
              },
              {
                "type": "ObjectProperty",
                "start": 166,
                "end": 200,
                "loc": {
                  "start": {
                    "line": 5,
                    "column": 4
                  },
                  "end": {
                    "line": 5,
                    "column": 38
                  }
                },
                "method": false,
                "shorthand": false,
                "computed": false,
                "key": {
                  "type": "Identifier",
                  "start": 166,
                  "end": 169,
                  "loc": {
                    "start": {
                      "line": 5,
                      "column": 4
                    },
                    "end": {
                      "line": 5,
                      "column": 7
                    },
                    "identifierName": "key"
                  },
                  "name": "key"
                },
                "value": {
                  "type": "CallExpression",
                  "start": 171,
                  "end": 200,
                  "loc": {
                    "start": {
                      "line": 5,
                      "column": 9
                    },
                    "end": {
                      "line": 5,
                      "column": 38
                    }
                  },
                  "callee": {
                    "type": "Identifier",
                    "start": 171,
                    "end": 178,
                    "loc": {
                      "start": {
                        "line": 5,
                        "column": 9
                      },
                      "end": {
                        "line": 5,
                        "column": 16
                      },
                      "identifierName": "require"
                    },
                    "name": "require"
                  },
                  "arguments": [
                    {
                      "type": "StringLiteral",
                      "start": 179,
                      "end": 199,
                      "loc": {
                        "start": {
                          "line": 5,
                          "column": 17
                        },
                        "end": {
                          "line": 5,
                          "column": 37
                        }
                      },
                      "extra": {
                        "rawValue": "./ecc/src/KeyUtils",
                        "raw": "\"./ecc/src/KeyUtils\""
                      },
                      "value": "./ecc/src/KeyUtils"
                    }
                  ]
                }
              },
              {
                "type": "ObjectProperty",
                "start": 206,
                "end": 267,
                "loc": {
                  "start": {
                    "line": 6,
                    "column": 4
                  },
                  "end": {
                    "line": 6,
                    "column": 65
                  }
                },
                "method": false,
                "shorthand": false,
                "computed": false,
                "key": {
                  "type": "Identifier",
                  "start": 206,
                  "end": 224,
                  "loc": {
                    "start": {
                      "line": 6,
                      "column": 4
                    },
                    "end": {
                      "line": 6,
                      "column": 22
                    },
                    "identifierName": "TransactionBuilder"
                  },
                  "name": "TransactionBuilder"
                },
                "value": {
                  "type": "CallExpression",
                  "start": 226,
                  "end": 267,
                  "loc": {
                    "start": {
                      "line": 6,
                      "column": 24
                    },
                    "end": {
                      "line": 6,
                      "column": 65
                    }
                  },
                  "callee": {
                    "type": "Identifier",
                    "start": 226,
                    "end": 233,
                    "loc": {
                      "start": {
                        "line": 6,
                        "column": 24
                      },
                      "end": {
                        "line": 6,
                        "column": 31
                      },
                      "identifierName": "require"
                    },
                    "name": "require"
                  },
                  "arguments": [
                    {
                      "type": "StringLiteral",
                      "start": 234,
                      "end": 266,
                      "loc": {
                        "start": {
                          "line": 6,
                          "column": 32
                        },
                        "end": {
                          "line": 6,
                          "column": 64
                        }
                      },
                      "extra": {
                        "rawValue": "./chain/src/TransactionBuilder",
                        "raw": "\"./chain/src/TransactionBuilder\""
                      },
                      "value": "./chain/src/TransactionBuilder"
                    }
                  ]
                }
              },
              {
                "type": "ObjectProperty",
                "start": 273,
                "end": 315,
                "loc": {
                  "start": {
                    "line": 7,
                    "column": 4
                  },
                  "end": {
                    "line": 7,
                    "column": 46
                  }
                },
                "method": false,
                "shorthand": false,
                "computed": false,
                "key": {
                  "type": "Identifier",
                  "start": 273,
                  "end": 278,
                  "loc": {
                    "start": {
                      "line": 7,
                      "column": 4
                    },
                    "end": {
                      "line": 7,
                      "column": 9
                    },
                    "identifierName": "Login"
                  },
                  "name": "Login"
                },
                "value": {
                  "type": "CallExpression",
                  "start": 280,
                  "end": 315,
                  "loc": {
                    "start": {
                      "line": 7,
                      "column": 11
                    },
                    "end": {
                      "line": 7,
                      "column": 46
                    }
                  },
                  "callee": {
                    "type": "Identifier",
                    "start": 280,
                    "end": 287,
                    "loc": {
                      "start": {
                        "line": 7,
                        "column": 11
                      },
                      "end": {
                        "line": 7,
                        "column": 18
                      },
                      "identifierName": "require"
                    },
                    "name": "require"
                  },
                  "arguments": [
                    {
                      "type": "StringLiteral",
                      "start": 288,
                      "end": 314,
                      "loc": {
                        "start": {
                          "line": 7,
                          "column": 19
                        },
                        "end": {
                          "line": 7,
                          "column": 45
                        }
                      },
                      "extra": {
                        "rawValue": "./chain/src/AccountLogin",
                        "raw": "\"./chain/src/AccountLogin\""
                      },
                      "value": "./chain/src/AccountLogin"
                    }
                  ]
                }
              },
              {
                "type": "ObjectProperty",
                "start": 321,
                "end": 360,
                "loc": {
                  "start": {
                    "line": 8,
                    "column": 4
                  },
                  "end": {
                    "line": 8,
                    "column": 43
                  }
                },
                "method": false,
                "shorthand": false,
                "computed": false,
                "key": {
                  "type": "Identifier",
                  "start": 321,
                  "end": 333,
                  "loc": {
                    "start": {
                      "line": 8,
                      "column": 4
                    },
                    "end": {
                      "line": 8,
                      "column": 16
                    },
                    "identifierName": "dxpchain_ws"
                  },
                  "name": "dxpchain_ws"
                },
                "value": {
                  "type": "CallExpression",
                  "start": 335,
                  "end": 360,
                  "loc": {
                    "start": {
                      "line": 8,
                      "column": 18
                    },
                    "end": {
                      "line": 8,
                      "column": 43
                    }
                  },
                  "callee": {
                    "type": "Identifier",
                    "start": 335,
                    "end": 342,
                    "loc": {
                      "start": {
                        "line": 8,
                        "column": 18
                      },
                      "end": {
                        "line": 8,
                        "column": 25
                      },
                      "identifierName": "require"
                    },
                    "name": "require"
                  },
                  "arguments": [
                    {
                      "type": "StringLiteral",
                      "start": 343,
                      "end": 359,
                      "loc": {
                        "start": {
                          "line": 8,
                          "column": 26
                        },
                        "end": {
                          "line": 8,
                          "column": 42
                        }
                      },
                      "extra": {
                        "rawValue": "dxpchainjs-ws",
                        "raw": "\"dxpchainjs-ws\""
                      },
                      "value": "dxpchainjs-ws"
                    }
                  ]
                }
              }
            ]
          }
        }
      }
    ],
    "directives": []
  },
  "comments": [],
  "tokens": [
    {
      "type": {
        "label": "name",
        "beforeExpr": false,
        "startsExpr": true,
        "rightAssociative": false,
        "isLoop": false,
        "isAssign": false,
        "prefix": false,
        "postfix": false,
        "binop": null
      },
      "value": "module",
      "start": 0,
      "end": 6,
      "loc": {
        "start": {
          "line": 1,
          "column": 0
        },
        "end": {
          "line": 1,
          "column": 6
        }
      }
    },
    {
      "type": {
        "label": ".",
        "beforeExpr": false,
        "startsExpr": false,
        "rightAssociative": false,
        "isLoop": false,
        "isAssign": false,
        "prefix": false,
        "postfix": false,
        "binop": null,
        "updateContext": null
      },
      "start": 6,
      "end": 7,
      "loc": {
        "start": {
          "line": 1,
          "column": 6
        },
        "end": {
          "line": 1,
          "column": 7
        }
      }
    },
    {
      "type": {
        "label": "name",
        "beforeExpr": false,
        "startsExpr": true,
        "rightAssociative": false,
        "isLoop": false,
        "isAssign": false,
        "prefix": false,
        "postfix": false,
        "binop": null
      },
      "value": "exports",
      "start": 7,
      "end": 14,
      "loc": {
        "start": {
          "line": 1,
          "column": 7
        },
        "end": {
          "line": 1,
          "column": 14
        }
      }
    },
    {
      "type": {
        "label": "=",
        "beforeExpr": true,
        "startsExpr": false,
        "rightAssociative": false,
        "isLoop": false,
        "isAssign": true,
        "prefix": false,
        "postfix": false,
        "binop": null,
        "updateContext": null
      },
      "value": "=",
      "start": 15,
      "end": 16,
      "loc": {
        "start": {
          "line": 1,
          "column": 15
        },
        "end": {
          "line": 1,
          "column": 16
        }
      }
    },
    {
      "type": {
        "label": "{",
        "beforeExpr": true,
        "startsExpr": true,
        "rightAssociative": false,
        "isLoop": false,
        "isAssign": false,
        "prefix": false,
        "postfix": false,
        "binop": null
      },
      "start": 17,
      "end": 18,
      "loc": {
        "start": {
          "line": 1,
          "column": 17
        },
        "end": {
          "line": 1,
          "column": 18
        }
      }
    },
    {
      "type": {
        "label": "name",
        "beforeExpr": false,
        "startsExpr": true,
        "rightAssociative": false,
        "isLoop": false,
        "isAssign": false,
        "prefix": false,
        "postfix": false,
        "binop": null
      },
      "value": "PrivateKey",
      "start": 23,
      "end": 33,
      "loc": {
        "start": {
          "line": 2,
          "column": 4
        },
        "end": {
          "line": 2,
          "column": 14
        }
      }
    },
    {
      "type": {
        "label": ":",
        "beforeExpr": true,
        "startsExpr": false,
        "rightAssociative": false,
        "isLoop": false,
        "isAssign": false,
        "prefix": false,
        "postfix": false,
        "binop": null,
        "updateContext": null
      },
      "start": 33,
      "end": 34,
      "loc": {
        "start": {
          "line": 2,
          "column": 14
        },
        "end": {
          "line": 2,
          "column": 15
        }
      }
    },
    {
      "type": {
        "label": "name",
        "beforeExpr": false,
        "startsExpr": true,
        "rightAssociative": false,
        "isLoop": false,
        "isAssign": false,
        "prefix": false,
        "postfix": false,
        "binop": null
      },
      "value": "require",
      "start": 35,
      "end": 42,
      "loc": {
        "start": {
          "line": 2,
          "column": 16
        },
        "end": {
          "line": 2,
          "column": 23
        }
      }
    },
    {
      "type": {
        "label": "(",
        "beforeExpr": true,
        "startsExpr": true,
        "rightAssociative": false,
        "isLoop": false,
        "isAssign": false,
        "prefix": false,
        "postfix": false,
        "binop": null
      },
      "start": 42,
      "end": 43,
      "loc": {
        "start": {
          "line": 2,
          "column": 23
        },
        "end": {
          "line": 2,
          "column": 24
        }
      }
    },
    {
      "type": {
        "label": "string",
        "beforeExpr": false,
        "startsExpr": true,
        "rightAssociative": false,
        "isLoop": false,
        "isAssign": false,
        "prefix": false,
        "postfix": false,
        "binop": null,
        "updateContext": null
      },
      "value": "./ecc/src/PrivateKey",
      "start": 43,
      "end": 65,
      "loc": {
        "start": {
          "line": 2,
          "column": 24
        },
        "end": {
          "line": 2,
          "column": 46
        }
      }
    },
    {
      "type": {
        "label": ")",
        "beforeExpr": false,
        "startsExpr": false,
        "rightAssociative": false,
        "isLoop": false,
        "isAssign": false,
        "prefix": false,
        "postfix": false,
        "binop": null
      },
      "start": 65,
      "end": 66,
      "loc": {
        "start": {
          "line": 2,
          "column": 46
        },
        "end": {
          "line": 2,
          "column": 47
        }
      }
    },
    {
      "type": {
        "label": ",",
        "beforeExpr": true,
        "startsExpr": false,
        "rightAssociative": false,
        "isLoop": false,
        "isAssign": false,
        "prefix": false,
        "postfix": false,
        "binop": null,
        "updateContext": null
      },
      "start": 66,
      "end": 67,
      "loc": {
        "start": {
          "line": 2,
          "column": 47
        },
        "end": {
          "line": 2,
          "column": 48
        }
      }
    },
    {
      "type": {
        "label": "name",
        "beforeExpr": false,
        "startsExpr": true,
        "rightAssociative": false,
        "isLoop": false,
        "isAssign": false,
        "prefix": false,
        "postfix": false,
        "binop": null
      },
      "value": "PublicKey",
      "start": 72,
      "end": 81,
      "loc": {
        "start": {
          "line": 3,
          "column": 4
        },
        "end": {
          "line": 3,
          "column": 13
        }
      }
    },
    {
      "type": {
        "label": ":",
        "beforeExpr": true,
        "startsExpr": false,
        "rightAssociative": false,
        "isLoop": false,
        "isAssign": false,
        "prefix": false,
        "postfix": false,
        "binop": null,
        "updateContext": null
      },
      "start": 81,
      "end": 82,
      "loc": {
        "start": {
          "line": 3,
          "column": 13
        },
        "end": {
          "line": 3,
          "column": 14
        }
      }
    },
    {
      "type": {
        "label": "name",
        "beforeExpr": false,
        "startsExpr": true,
        "rightAssociative": false,
        "isLoop": false,
        "isAssign": false,
        "prefix": false,
        "postfix": false,
        "binop": null
      },
      "value": "require",
      "start": 83,
      "end": 90,
      "loc": {
        "start": {
          "line": 3,
          "column": 15
        },
        "end": {
          "line": 3,
          "column": 22
        }
      }
    },
    {
      "type": {
        "label": "(",
        "beforeExpr": true,
        "startsExpr": true,
        "rightAssociative": false,
        "isLoop": false,
        "isAssign": false,
        "prefix": false,
        "postfix": false,
        "binop": null
      },
      "start": 90,
      "end": 91,
      "loc": {
        "start": {
          "line": 3,
          "column": 22
        },
        "end": {
          "line": 3,
          "column": 23
        }
      }
    },
    {
      "type": {
        "label": "string",
        "beforeExpr": false,
        "startsExpr": true,
        "rightAssociative": false,
        "isLoop": false,
        "isAssign": false,
        "prefix": false,
        "postfix": false,
        "binop": null,
        "updateContext": null
      },
      "value": "./ecc/src/PublicKey",
      "start": 91,
      "end": 112,
      "loc": {
        "start": {
          "line": 3,
          "column": 23
        },
        "end": {
          "line": 3,
          "column": 44
        }
      }
    },
    {
      "type": {
        "label": ")",
        "beforeExpr": false,
        "startsExpr": false,
        "rightAssociative": false,
        "isLoop": false,
        "isAssign": false,
        "prefix": false,
        "postfix": false,
        "binop": null
      },
      "start": 112,
      "end": 113,
      "loc": {
        "start": {
          "line": 3,
          "column": 44
        },
        "end": {
          "line": 3,
          "column": 45
        }
      }
    },
    {
      "type": {
        "label": ",",
        "beforeExpr": true,
        "startsExpr": false,
        "rightAssociative": false,
        "isLoop": false,
        "isAssign": false,
        "prefix": false,
        "postfix": false,
        "binop": null,
        "updateContext": null
      },
      "start": 113,
      "end": 114,
      "loc": {
        "start": {
          "line": 3,
          "column": 45
        },
        "end": {
          "line": 3,
          "column": 46
        }
      }
    },
    {
      "type": {
        "label": "name",
        "beforeExpr": false,
        "startsExpr": true,
        "rightAssociative": false,
        "isLoop": false,
        "isAssign": false,
        "prefix": false,
        "postfix": false,
        "binop": null
      },
      "value": "Signature",
      "start": 119,
      "end": 128,
      "loc": {
        "start": {
          "line": 4,
          "column": 4
        },
        "end": {
          "line": 4,
          "column": 13
        }
      }
    },
    {
      "type": {
        "label": ":",
        "beforeExpr": true,
        "startsExpr": false,
        "rightAssociative": false,
        "isLoop": false,
        "isAssign": false,
        "prefix": false,
        "postfix": false,
        "binop": null,
        "updateContext": null
      },
      "start": 128,
      "end": 129,
      "loc": {
        "start": {
          "line": 4,
          "column": 13
        },
        "end": {
          "line": 4,
          "column": 14
        }
      }
    },
    {
      "type": {
        "label": "name",
        "beforeExpr": false,
        "startsExpr": true,
        "rightAssociative": false,
        "isLoop": false,
        "isAssign": false,
        "prefix": false,
        "postfix": false,
        "binop": null
      },
      "value": "require",
      "start": 130,
      "end": 137,
      "loc": {
        "start": {
          "line": 4,
          "column": 15
        },
        "end": {
          "line": 4,
          "column": 22
        }
      }
    },
    {
      "type": {
        "label": "(",
        "beforeExpr": true,
        "startsExpr": true,
        "rightAssociative": false,
        "isLoop": false,
        "isAssign": false,
        "prefix": false,
        "postfix": false,
        "binop": null
      },
      "start": 137,
      "end": 138,
      "loc": {
        "start": {
          "line": 4,
          "column": 22
        },
        "end": {
          "line": 4,
          "column": 23
        }
      }
    },
    {
      "type": {
        "label": "string",
        "beforeExpr": false,
        "startsExpr": true,
        "rightAssociative": false,
        "isLoop": false,
        "isAssign": false,
        "prefix": false,
        "postfix": false,
        "binop": null,
        "updateContext": null
      },
      "value": "./ecc/src/signature",
      "start": 138,
      "end": 159,
      "loc": {
        "start": {
          "line": 4,
          "column": 23
        },
        "end": {
          "line": 4,
          "column": 44
        }
      }
    },
    {
      "type": {
        "label": ")",
        "beforeExpr": false,
        "startsExpr": false,
        "rightAssociative": false,
        "isLoop": false,
        "isAssign": false,
        "prefix": false,
        "postfix": false,
        "binop": null
      },
      "start": 159,
      "end": 160,
      "loc": {
        "start": {
          "line": 4,
          "column": 44
        },
        "end": {
          "line": 4,
          "column": 45
        }
      }
    },
    {
      "type": {
        "label": ",",
        "beforeExpr": true,
        "startsExpr": false,
        "rightAssociative": false,
        "isLoop": false,
        "isAssign": false,
        "prefix": false,
        "postfix": false,
        "binop": null,
        "updateContext": null
      },
      "start": 160,
      "end": 161,
      "loc": {
        "start": {
          "line": 4,
          "column": 45
        },
        "end": {
          "line": 4,
          "column": 46
        }
      }
    },
    {
      "type": {
        "label": "name",
        "beforeExpr": false,
        "startsExpr": true,
        "rightAssociative": false,
        "isLoop": false,
        "isAssign": false,
        "prefix": false,
        "postfix": false,
        "binop": null
      },
      "value": "key",
      "start": 166,
      "end": 169,
      "loc": {
        "start": {
          "line": 5,
          "column": 4
        },
        "end": {
          "line": 5,
          "column": 7
        }
      }
    },
    {
      "type": {
        "label": ":",
        "beforeExpr": true,
        "startsExpr": false,
        "rightAssociative": false,
        "isLoop": false,
        "isAssign": false,
        "prefix": false,
        "postfix": false,
        "binop": null,
        "updateContext": null
      },
      "start": 169,
      "end": 170,
      "loc": {
        "start": {
          "line": 5,
          "column": 7
        },
        "end": {
          "line": 5,
          "column": 8
        }
      }
    },
    {
      "type": {
        "label": "name",
        "beforeExpr": false,
        "startsExpr": true,
        "rightAssociative": false,
        "isLoop": false,
        "isAssign": false,
        "prefix": false,
        "postfix": false,
        "binop": null
      },
      "value": "require",
      "start": 171,
      "end": 178,
      "loc": {
        "start": {
          "line": 5,
          "column": 9
        },
        "end": {
          "line": 5,
          "column": 16
        }
      }
    },
    {
      "type": {
        "label": "(",
        "beforeExpr": true,
        "startsExpr": true,
        "rightAssociative": false,
        "isLoop": false,
        "isAssign": false,
        "prefix": false,
        "postfix": false,
        "binop": null
      },
      "start": 178,
      "end": 179,
      "loc": {
        "start": {
          "line": 5,
          "column": 16
        },
        "end": {
          "line": 5,
          "column": 17
        }
      }
    },
    {
      "type": {
        "label": "string",
        "beforeExpr": false,
        "startsExpr": true,
        "rightAssociative": false,
        "isLoop": false,
        "isAssign": false,
        "prefix": false,
        "postfix": false,
        "binop": null,
        "updateContext": null
      },
      "value": "./ecc/src/KeyUtils",
      "start": 179,
      "end": 199,
      "loc": {
        "start": {
          "line": 5,
          "column": 17
        },
        "end": {
          "line": 5,
          "column": 37
        }
      }
    },
    {
      "type": {
        "label": ")",
        "beforeExpr": false,
        "startsExpr": false,
        "rightAssociative": false,
        "isLoop": false,
        "isAssign": false,
        "prefix": false,
        "postfix": false,
        "binop": null
      },
      "start": 199,
      "end": 200,
      "loc": {
        "start": {
          "line": 5,
          "column": 37
        },
        "end": {
          "line": 5,
          "column": 38
        }
      }
    },
    {
      "type": {
        "label": ",",
        "beforeExpr": true,
        "startsExpr": false,
        "rightAssociative": false,
        "isLoop": false,
        "isAssign": false,
        "prefix": false,
        "postfix": false,
        "binop": null,
        "updateContext": null
      },
      "start": 200,
      "end": 201,
      "loc": {
        "start": {
          "line": 5,
          "column": 38
        },
        "end": {
          "line": 5,
          "column": 39
        }
      }
    },
    {
      "type": {
        "label": "name",
        "beforeExpr": false,
        "startsExpr": true,
        "rightAssociative": false,
        "isLoop": false,
        "isAssign": false,
        "prefix": false,
        "postfix": false,
        "binop": null
      },
      "value": "TransactionBuilder",
      "start": 206,
      "end": 224,
      "loc": {
        "start": {
          "line": 6,
          "column": 4
        },
        "end": {
          "line": 6,
          "column": 22
        }
      }
    },
    {
      "type": {
        "label": ":",
        "beforeExpr": true,
        "startsExpr": false,
        "rightAssociative": false,
        "isLoop": false,
        "isAssign": false,
        "prefix": false,
        "postfix": false,
        "binop": null,
        "updateContext": null
      },
      "start": 224,
      "end": 225,
      "loc": {
        "start": {
          "line": 6,
          "column": 22
        },
        "end": {
          "line": 6,
          "column": 23
        }
      }
    },
    {
      "type": {
        "label": "name",
        "beforeExpr": false,
        "startsExpr": true,
        "rightAssociative": false,
        "isLoop": false,
        "isAssign": false,
        "prefix": false,
        "postfix": false,
        "binop": null
      },
      "value": "require",
      "start": 226,
      "end": 233,
      "loc": {
        "start": {
          "line": 6,
          "column": 24
        },
        "end": {
          "line": 6,
          "column": 31
        }
      }
    },
    {
      "type": {
        "label": "(",
        "beforeExpr": true,
        "startsExpr": true,
        "rightAssociative": false,
        "isLoop": false,
        "isAssign": false,
        "prefix": false,
        "postfix": false,
        "binop": null
      },
      "start": 233,
      "end": 234,
      "loc": {
        "start": {
          "line": 6,
          "column": 31
        },
        "end": {
          "line": 6,
          "column": 32
        }
      }
    },
    {
      "type": {
        "label": "string",
        "beforeExpr": false,
        "startsExpr": true,
        "rightAssociative": false,
        "isLoop": false,
        "isAssign": false,
        "prefix": false,
        "postfix": false,
        "binop": null,
        "updateContext": null
      },
      "value": "./chain/src/TransactionBuilder",
      "start": 234,
      "end": 266,
      "loc": {
        "start": {
          "line": 6,
          "column": 32
        },
        "end": {
          "line": 6,
          "column": 64
        }
      }
    },
    {
      "type": {
        "label": ")",
        "beforeExpr": false,
        "startsExpr": false,
        "rightAssociative": false,
        "isLoop": false,
        "isAssign": false,
        "prefix": false,
        "postfix": false,
        "binop": null
      },
      "start": 266,
      "end": 267,
      "loc": {
        "start": {
          "line": 6,
          "column": 64
        },
        "end": {
          "line": 6,
          "column": 65
        }
      }
    },
    {
      "type": {
        "label": ",",
        "beforeExpr": true,
        "startsExpr": false,
        "rightAssociative": false,
        "isLoop": false,
        "isAssign": false,
        "prefix": false,
        "postfix": false,
        "binop": null,
        "updateContext": null
      },
      "start": 267,
      "end": 268,
      "loc": {
        "start": {
          "line": 6,
          "column": 65
        },
        "end": {
          "line": 6,
          "column": 66
        }
      }
    },
    {
      "type": {
        "label": "name",
        "beforeExpr": false,
        "startsExpr": true,
        "rightAssociative": false,
        "isLoop": false,
        "isAssign": false,
        "prefix": false,
        "postfix": false,
        "binop": null
      },
      "value": "Login",
      "start": 273,
      "end": 278,
      "loc": {
        "start": {
          "line": 7,
          "column": 4
        },
        "end": {
          "line": 7,
          "column": 9
        }
      }
    },
    {
      "type": {
        "label": ":",
        "beforeExpr": true,
        "startsExpr": false,
        "rightAssociative": false,
        "isLoop": false,
        "isAssign": false,
        "prefix": false,
        "postfix": false,
        "binop": null,
        "updateContext": null
      },
      "start": 278,
      "end": 279,
      "loc": {
        "start": {
          "line": 7,
          "column": 9
        },
        "end": {
          "line": 7,
          "column": 10
        }
      }
    },
    {
      "type": {
        "label": "name",
        "beforeExpr": false,
        "startsExpr": true,
        "rightAssociative": false,
        "isLoop": false,
        "isAssign": false,
        "prefix": false,
        "postfix": false,
        "binop": null
      },
      "value": "require",
      "start": 280,
      "end": 287,
      "loc": {
        "start": {
          "line": 7,
          "column": 11
        },
        "end": {
          "line": 7,
          "column": 18
        }
      }
    },
    {
      "type": {
        "label": "(",
        "beforeExpr": true,
        "startsExpr": true,
        "rightAssociative": false,
        "isLoop": false,
        "isAssign": false,
        "prefix": false,
        "postfix": false,
        "binop": null
      },
      "start": 287,
      "end": 288,
      "loc": {
        "start": {
          "line": 7,
          "column": 18
        },
        "end": {
          "line": 7,
          "column": 19
        }
      }
    },
    {
      "type": {
        "label": "string",
        "beforeExpr": false,
        "startsExpr": true,
        "rightAssociative": false,
        "isLoop": false,
        "isAssign": false,
        "prefix": false,
        "postfix": false,
        "binop": null,
        "updateContext": null
      },
      "value": "./chain/src/AccountLogin",
      "start": 288,
      "end": 314,
      "loc": {
        "start": {
          "line": 7,
          "column": 19
        },
        "end": {
          "line": 7,
          "column": 45
        }
      }
    },
    {
      "type": {
        "label": ")",
        "beforeExpr": false,
        "startsExpr": false,
        "rightAssociative": false,
        "isLoop": false,
        "isAssign": false,
        "prefix": false,
        "postfix": false,
        "binop": null
      },
      "start": 314,
      "end": 315,
      "loc": {
        "start": {
          "line": 7,
          "column": 45
        },
        "end": {
          "line": 7,
          "column": 46
        }
      }
    },
    {
      "type": {
        "label": ",",
        "beforeExpr": true,
        "startsExpr": false,
        "rightAssociative": false,
        "isLoop": false,
        "isAssign": false,
        "prefix": false,
        "postfix": false,
        "binop": null,
        "updateContext": null
      },
      "start": 315,
      "end": 316,
      "loc": {
        "start": {
          "line": 7,
          "column": 46
        },
        "end": {
          "line": 7,
          "column": 47
        }
      }
    },
    {
      "type": {
        "label": "name",
        "beforeExpr": false,
        "startsExpr": true,
        "rightAssociative": false,
        "isLoop": false,
        "isAssign": false,
        "prefix": false,
        "postfix": false,
        "binop": null
      },
      "value": "dxpchain_ws",
      "start": 321,
      "end": 333,
      "loc": {
        "start": {
          "line": 8,
          "column": 4
        },
        "end": {
          "line": 8,
          "column": 16
        }
      }
    },
    {
      "type": {
        "label": ":",
        "beforeExpr": true,
        "startsExpr": false,
        "rightAssociative": false,
        "isLoop": false,
        "isAssign": false,
        "prefix": false,
        "postfix": false,
        "binop": null,
        "updateContext": null
      },
      "start": 333,
      "end": 334,
      "loc": {
        "start": {
          "line": 8,
          "column": 16
        },
        "end": {
          "line": 8,
          "column": 17
        }
      }
    },
    {
      "type": {
        "label": "name",
        "beforeExpr": false,
        "startsExpr": true,
        "rightAssociative": false,
        "isLoop": false,
        "isAssign": false,
        "prefix": false,
        "postfix": false,
        "binop": null
      },
      "value": "require",
      "start": 335,
      "end": 342,
      "loc": {
        "start": {
          "line": 8,
          "column": 18
        },
        "end": {
          "line": 8,
          "column": 25
        }
      }
    },
    {
      "type": {
        "label": "(",
        "beforeExpr": true,
        "startsExpr": true,
        "rightAssociative": false,
        "isLoop": false,
        "isAssign": false,
        "prefix": false,
        "postfix": false,
        "binop": null
      },
      "start": 342,
      "end": 343,
      "loc": {
        "start": {
          "line": 8,
          "column": 25
        },
        "end": {
          "line": 8,
          "column": 26
        }
      }
    },
    {
      "type": {
        "label": "string",
        "beforeExpr": false,
        "startsExpr": true,
        "rightAssociative": false,
        "isLoop": false,
        "isAssign": false,
        "prefix": false,
        "postfix": false,
        "binop": null,
        "updateContext": null
      },
      "value": "dxpchainjs-ws",
      "start": 343,
      "end": 359,
      "loc": {
        "start": {
          "line": 8,
          "column": 26
        },
        "end": {
          "line": 8,
          "column": 42
        }
      }
    },
    {
      "type": {
        "label": ")",
        "beforeExpr": false,
        "startsExpr": false,
        "rightAssociative": false,
        "isLoop": false,
        "isAssign": false,
        "prefix": false,
        "postfix": false,
        "binop": null
      },
      "start": 359,
      "end": 360,
      "loc": {
        "start": {
          "line": 8,
          "column": 42
        },
        "end": {
          "line": 8,
          "column": 43
        }
      }
    },
    {
      "type": {
        "label": "}",
        "beforeExpr": false,
        "startsExpr": false,
        "rightAssociative": false,
        "isLoop": false,
        "isAssign": false,
        "prefix": false,
        "postfix": false,
        "binop": null
      },
      "start": 361,
      "end": 362,
      "loc": {
        "start": {
          "line": 9,
          "column": 0
        },
        "end": {
          "line": 9,
          "column": 1
        }
      }
    },
    {
      "type": {
        "label": "eof",
        "beforeExpr": false,
        "startsExpr": false,
        "rightAssociative": false,
        "isLoop": false,
        "isAssign": false,
        "prefix": false,
        "postfix": false,
        "binop": null,
        "updateContext": null
      },
      "start": 363,
      "end": 363,
      "loc": {
        "start": {
          "line": 10,
          "column": 0
        },
        "end": {
          "line": 10,
          "column": 0
        }
      }
    }
  ]
}